Determining if the pthread_create exist failed with the following output:
Change Dir: /home/bastian/ros_workspace/sandbox/turtlebot_butler/build/CMakeFiles/CMakeTmp

Run Build Command:/usr/bin/make "cmTryCompileExec356819435/fast"
make[1]: Entering directory `/home/bastian/ros_workspace/sandbox/turtlebot_butler/build/CMakeFiles/CMakeTmp'
/usr/bin/make -f CMakeFiles/cmTryCompileExec356819435.dir/build.make CMakeFiles/cmTryCompileExec356819435.dir/build
make[2]: Entering directory `/home/bastian/ros_workspace/sandbox/turtlebot_butler/build/CMakeFiles/CMakeTmp'
/usr/bin/cmake -E cmake_progress_report /home/bastian/ros_workspace/sandbox/turtlebot_butler/build/CMakeFiles/CMakeTmp/CMakeFiles 1
Building C object CMakeFiles/cmTryCompileExec356819435.dir/CheckSymbolExists.c.o
/usr/bin/cc    -o CMakeFiles/cmTryCompileExec356819435.dir/CheckSymbolExists.c.o   -c /home/bastian/ros_workspace/sandbox/turtlebot_butler/build/CMakeFiles/CMakeTmp/CheckSymbolExists.c
Linking C executable cmTryCompileExec356819435
/usr/bin/cmake -E cmake_link_script CMakeFiles/cmTryCompileExec356819435.dir/link.txt --verbose=1
/usr/bin/cc       CMakeFiles/cmTryCompileExec356819435.dir/CheckSymbolExists.c.o  -o cmTryCompileExec356819435 -rdynamic 
CMakeFiles/cmTryCompileExec356819435.dir/CheckSymbolExists.c.o: In function `main':
CheckSymbolExists.c:(.text+0x16): undefined reference to `pthread_create'
collect2: error: ld returned 1 exit status
make[2]: *** [cmTryCompileExec356819435] Error 1
make[2]: Leaving directory `/home/bastian/ros_workspace/sandbox/turtlebot_butler/build/CMakeFiles/CMakeTmp'
make[1]: *** [cmTryCompileExec356819435/fast] Error 2
make[1]: Leaving directory `/home/bastian/ros_workspace/sandbox/turtlebot_butler/build/CMakeFiles/CMakeTmp'

File /home/bastian/ros_workspace/sandbox/turtlebot_butler/build/CMakeFiles/CMakeTmp/CheckSymbolExists.c:
/* */
#include <pthread.h>

int main(int argc, char** argv)
{
  (void)argv;
#ifndef pthread_create
  return ((int*)(&pthread_create))[argc];
#else
  (void)argc;
  return 0;
#endif
}

Determining if the function pthread_create exists in the pthreads failed with the following output:
Change Dir: /home/bastian/ros_workspace/sandbox/turtlebot_butler/build/CMakeFiles/CMakeTmp

Run Build Command:/usr/bin/make "cmTryCompileExec1712309037/fast"
make[1]: Entering directory `/home/bastian/ros_workspace/sandbox/turtlebot_butler/build/CMakeFiles/CMakeTmp'
/usr/bin/make -f CMakeFiles/cmTryCompileExec1712309037.dir/build.make CMakeFiles/cmTryCompileExec1712309037.dir/build
make[2]: Entering directory `/home/bastian/ros_workspace/sandbox/turtlebot_butler/build/CMakeFiles/CMakeTmp'
/usr/bin/cmake -E cmake_progress_report /home/bastian/ros_workspace/sandbox/turtlebot_butler/build/CMakeFiles/CMakeTmp/CMakeFiles 1
Building C object CMakeFiles/cmTryCompileExec1712309037.dir/CheckFunctionExists.c.o
/usr/bin/cc   -DCHECK_FUNCTION_EXISTS=pthread_create   -o CMakeFiles/cmTryCompileExec1712309037.dir/CheckFunctionExists.c.o   -c /usr/share/cmake-2.8/Modules/CheckFunctionExists.c
Linking C executable cmTryCompileExec1712309037
/usr/bin/cmake -E cmake_link_script CMakeFiles/cmTryCompileExec1712309037.dir/link.txt --verbose=1
/usr/bin/cc   -DCHECK_FUNCTION_EXISTS=pthread_create    CMakeFiles/cmTryCompileExec1712309037.dir/CheckFunctionExists.c.o  -o cmTryCompileExec1712309037 -rdynamic -lpthreads 
/usr/bin/ld: cannot find -lpthreads
collect2: error: ld returned 1 exit status
make[2]: *** [cmTryCompileExec1712309037] Error 1
make[2]: Leaving directory `/home/bastian/ros_workspace/sandbox/turtlebot_butler/build/CMakeFiles/CMakeTmp'
make[1]: *** [cmTryCompileExec1712309037/fast] Error 2
make[1]: Leaving directory `/home/bastian/ros_workspace/sandbox/turtlebot_butler/build/CMakeFiles/CMakeTmp'


